Palmer Penguins Initial Analysis
…
# A tibble: 6 × 2
  name                           value
  <chr>                          <dbl>
1 min_bill_length                36.2 
2 first_quartile_bill_length     44.6 
3 median_bill_length             46.4 
4 mean_bill_length_mm            46.4 
5 third_quartile_bill_length     49.1 
6 standard_deviation_bill_length  4.93

penguins %>%
  select(species, island, sex, year)

# A tibble: 44 × 4
   species island sex    year
   <chr>   <chr>  <chr> <dbl>
 1 Gentoo  Biscoe male   2007
 2 Gentoo  Biscoe male   2008
 3 Gentoo  Biscoe male   2009
 4 Gentoo  Biscoe male   2009
 5 Gentoo  Biscoe male   2009
 6 Gentoo  Biscoe male   2009
 7 Gentoo  Biscoe male   2008
 8 Gentoo  Biscoe male   2009
 9 Gentoo  Biscoe male   2008
10 Gentoo  Biscoe male   2007
# … with 34 more rows
…
